
{
    "startHour":"9",
    "endHour":"20",
    "instructor":{
        "name":"asdasdasd",
        "link":"asd",
        "email":"asdasdasd",
        "room":"asdasdasd",
        "photo":"",
        "hours":[
            {
                "day":"Tuesday",
                "time":"1:00pm-2:20pm"
            },
            {
                "day":"Wednesday",
                "time":"2pm-3pm"
            },
            {
                "day":"Thursday",
                "time":"1:00pm-2:20pm"
            }
        ]
    },
    "grad_tas":[
        {
            "name":"asdasd",
            "email":"asdasd@qwe.com"
        }
    ],
    "undergrad_tas":[
        {
            "name":"asdasdaa",
            "email":"asdadasd@qwweqwe.com"
        }
    ],
    "officeHours":[
        {
            "day":"MONDAY",
            "time":"9_30am",
            "name":"asdasdaa"
        },
        {
            "day":"THURSDAY",
            "time":"9_30am",
            "name":"asdasdaa"
        },
        {
            "day":"FRIDAY",
            "time":"9_30am",
            "name":"asdasdaa"
        },
        {
            "day":"MONDAY",
            "time":"10_00am",
            "name":"asdasd"
        },
        {
            "day":"TUESDAY",
            "time":"10_00am",
            "name":"asdasd"
        },
        {
            "day":"FRIDAY",
            "time":"10_30am",
            "name":"asdasdaa"
        },
        {
            "day":"MONDAY",
            "time":"11_00am",
            "name":"asdasd"
        },
        {
            "day":"WEDNESDAY",
            "time":"11_00am",
            "name":"asdasd"
        },
        {
            "day":"THURSDAY",
            "time":"11_00am",
            "name":"asdasd"
        },
        {
            "day":"WEDNESDAY",
            "time":"12_00pm",
            "name":"asdasdaa"
        },
        {
            "day":"FRIDAY",
            "time":"12_00pm",
            "name":"asdasdaa"
        },
        {
            "day":"TUESDAY",
            "time":"12_30pm",
            "name":"asdasdaa"
        },
        {
            "day":"MONDAY",
            "time":"1_00pm",
            "name":"asdasdaa"
        },
        {
            "day":"MONDAY",
            "time":"1_30pm",
            "name":"asdasdaa"
        }
    ]
}