
{
    "subject":"CSE",
    "number":"219",
    "semester":"Summer",
    "year":"2018",
    "title":"asdasdasda",
    "logos":{
        "favicon":{
            "href":"./images/favicon.png"
        },
        "navbar":{
            "href":"http://www.cs.stonybrook.edu",
            "src":"./images/SBUDarkRedShieldLogo.png"
        },
        "bottom_left":{
            "href":"http://www.cs.stonybrook.edu",
            "src":"./images/SBUWhiteShieldLogo.jpg"
        },
        "bottom_right":{
            "href":"http://www.cs.stonybrook.edu",
            "src":"./images/SBUCSLogo.png"
        }
    },
    "instructor":{
        "name":"asdasdasd",
        "link":"asd",
        "email":"asdasdasd",
        "room":"asdasdasd",
        "photo":"",
        "hours":[
            {
                "day":"Tuesday",
                "time":"1:00pm-2:20pm"
            },
            {
                "day":"Wednesday",
                "time":"2pm-3pm"
            },
            {
                "day":"Thursday",
                "time":"1:00pm-2:20pm"
            }
        ]
    },
    "pages":[
        {
            "name":"Home",
            "link":"index.html"
        },
        {
            "name":"Syllabus",
            "link":"syllabus.html"
        },
        {
            "name":"Schedule",
            "link":"schedule.html"
        },
        {
            "name":"HWs",
            "link":"hws.html"
        }
    ]
}